[
  {
    "productType": "exhaust",
    "productID": "",
    "product": "Slip-On Exhaust",
    "manufacturer": "Akrapovic",
    "vendor": "RevZilla",
    "price": "$350.96",
    "tax": "",
    "shipping": "",
    "rating": 4.5,
    "reviewers": 207,
    "image": "https://www.revzilla.com/product_images/0076/6495/akrapovic_slip_on_exhausts_750x750.jpg",
    "productLink": "https://www.revzilla.com/motorcycle/akrapovic-slip-on-exhausts"
  },
  {
    "productType": "exhaust",
    "productID": "",
    "product": "S1R Slip-On Exhaust",
    "manufacturer": "Two Brothers",
    "vendor": "RevZilla",
    "price": "$365.48",
    "tax": "",
    "shipping": "",
    "rating": 4.5,
    "reviewers": 53,
    "image": "https://www.revzilla.com/product_images/0166/3321/two_brothers_s1_r_slip_on_exhaust_750x750.jpg",
    "productLink": "https://www.revzilla.com/motorcycle/two-brothers-s1r-slip-on-exhaust"
  },
    {
      "productType": "fTire",
      "productID": "",
      "product": "MT60RS Tires",
      "manufacturer": "Pirelli",
      "vendor": "RevZilla",
      "price": "$168.19",
      "tax": "",
      "shipping": "",
      "rating": 4,
      "reviewers": 12,
      "image": "https://www.revzilla.com/product_images/0370/5934/pirelli_mt60_rs_tires_750x750.jpg",
      "productLink": "https://www.revzilla.com/motorcycle/pirelli-mt60rs-tires"
    },
    {
      "productType": "fTire",
      "productID": "",
      "product": "Enduro 3 Sahara Tires",
      "manufacturer": "Metzeler",
      "vendor": "RevZilla",
      "price": "$105.96",
      "tax": "",
      "shipping": "",
      "rating": 5,
      "reviewers": 2,
      "image": "https://www.revzilla.com/product_images/0089/7210/metzeler_enduro3_sahara_front_tires_750x750.jpg",
      "productLink": "https://www.revzilla.com/motorcycle/metzeler-enduro-3-sahara-tires?kclid=e3f4b9e6-fe90-44af-9916-098ffdfb6e6d&gclid=CjwKCAjwpKveBRAwEiwAo4Pqm2FMHI4wTldX4mYcdok3Q97eQZIZTecdTi1vtT0JyOJzIpecOon7rxoChcYQAvD_BwE"
    },

      {
        "productType": "grips",
        "productID": "",
        "product": "Fusion Knurled Grips",
        "manufacturer": "Arlen Ness",
        "vendor": "RevZilla",
        "price": "$44.95",
        "tax": "",
        "shipping": "",
        "rating": 4,
        "reviewers": 36,
        "image": "https://www.revzilla.com/product_images/0283/3465/arlen_ness_fusion_knurled_grips_for_harley_750x750.jpg",
        "productLink": "https://www.revzilla.com/motorcycle/arlen-ness-fusion-knurled-grips-for-harley"
      },
      {
        "productType": "grips",
        "productID": "",
        "product": "Torker 1\" Grips",
        "manufacturer": "Biltwell",
        "vendor": "RevZilla",
        "price": "$17.95",
        "tax": "",
        "shipping": "",
        "rating": 4.5,
        "reviewers": 12,
        "image": "https://www.revzilla.com/product_images/0148/7021/biltwell_torker1_grips_black_750x750.jpg",
        "productLink": "https://www.revzilla.com/motorcycle/biltwell-torker-1-grips?rrec=true"
      },

        {
          "productType": "handlebar",
          "productID": "",
          "product": "SE Handlebars 7/8",
          "manufacturer": "Pro Taper",
          "vendor": "RevZilla",
          "price": "$62.96",
          "tax": "",
          "shipping": "",
          "rating": 5,
          "reviewers": 8,
          "image": "https://www.revzilla.com/product_images/0127/6294/pro_taper_se_handlebars_black_750x750.jpg",
          "productLink": "https://www.revzilla.com/motorcycle/pro-taper-se-handlebars-78"
        },
        {
          "productType": "handlebar",
          "productID": "P304905",
          "product": "TC Bros BMX 1",
          "manufacturer": "TC Bros",
          "vendor": "RevZilla",
          "price": "$199.95",
          "tax": "",
          "shipping": "",
          "rating": "",
          "reviewers": "",
          "image": "https://www.revzilla.com/product_images/0136/1973/tc_bros_bmx1_handlebars_black_750x750.jpg",
          "productLink": "https://www.revzilla.com/motorcycle/tc-bros-bmx-1-handlebars"
        },

          {
            "productType": "rTire",
            "productID": "",
            "product": "MT60RS Tires",
            "manufacturer": "Pirelli",
            "vendor": "RevZilla",
            "price": "$206.84",
            "tax": "",
            "shipping": "",
            "rating": 4,
            "reviewers": 12,
            "image": "https://www.revzilla.com/product_images/0370/5934/pirelli_mt60_rs_tires_750x750.jpg",
            "productLink": "https://www.revzilla.com/motorcycle/pirelli-mt60rs-tires"
          },
          {
            "productType": "rTire",
            "productID": "",
            "product": "Enduro 3 Sahara Tires",
            "manufacturer": "Metzeler",
            "vendor": "RevZilla",
            "price": "$155.38",
            "tax": "",
            "shipping": "",
            "rating": 5,
            "reviewers": 2,
            "image": "https://www.revzilla.com/product_images/0089/7210/metzeler_enduro3_sahara_front_tires_750x750.jpg",
            "productLink": "https://www.revzilla.com/motorcycle/metzeler-enduro-3-sahara-tires?kclid=e3f4b9e6-fe90-44af-9916-098ffdfb6e6d&gclid=CjwKCAjwpKveBRAwEiwAo4Pqm2FMHI4wTldX4mYcdok3Q97eQZIZTecdTi1vtT0JyOJzIpecOon7rxoChcYQAvD_BwE"
          },

            {
              "productType": "Suspension",
              "productID": "",
              "product": "412 Black 13\" Standard Shocks",
              "manufacturer": "Progressive",
              "vendor": "RevZilla",
              "price": "$269.96",
              "tax": "",
              "shipping": "",
              "rating": 4.5,
              "reviewers": 83,
              "image": "https://www.revzilla.com/product_images/0060/5791/progressive12121414412_series_shocks_for_harley_fxr19871994_black_750x750.jpg",
              "productLink": "https://www.revzilla.com/motorcycle/progressive-412-series-shocks-for-harley-sportster-1986-2003?kclid=e3f4b9e6-fe90-44af-9916-098ffdfb6e6d&gclid=CjwKCAjwpKveBRAwEiwAo4Pqm4pGTRL9__r5c-yXRBvWE8554qj9AdoCyusAKfclmvzuyhNQBI5WQBoC-9EQAvD_BwE"
            },
            {
              "productType": "Suspension",
              "productID": "",
              "product": "412 Black 13\" Standard Shocks",
              "manufacturer": "Progressive",
              "vendor": "Dennis Kirk",
              "price": "$269.96",
              "tax": "",
              "shipping": "",
              "rating": 4,
              "reviewers": 15,
              "image": "https://www.denniskirk.com/dk/product_images/dk/600pix/dk581424.jpg",
              "productLink": "https://www.denniskirk.com/progressive-suspension/black-412-series-13-american-tuned-gas-shocks-w-o-cover-90-130-spring-rate-lbs-in-412-4002b.p581424.prd/581424.sku?utm_source=google&utm_medium=cse&gclid=CjwKCAjwpKveBRAwEiwAo4Pqmw3MV5zyBjQFwL5pYTcli5DbYpf_TeHzsZERYIMlM_-JO-9bFAqClBoCyRIQAvD_BwE&ad=45713343397"
            },
            {
              "productType": "Suspension",
              "productID": "",
              "product": "412 Black 13\" Standard Shocks",
              "manufacturer": "Progressive",
              "vendor": "J&P Cycles",
              "price": "$269.96",
              "tax": "",
              "shipping": "",
              "rating": 5,
              "reviewers": 3,
              "image": "https://img.jpcycles.com/zoom/701-751_A.jpg",
              "productLink": "https://www.jpcycles.com/product/701-751/progressive-suspension-412-black-13-standard-shocks?mrkgadid=3300286636&rkg_id=0&utm_source=google&utm_medium=cpc&utm_campaign=Google+Shopping++-+All+Products&product_id=701-751&utm_content=pla&adpos=1o4&creative=278659151686&device=c&matchtype=&network=g&gclid=CjwKCAjwpKveBRAwEiwAo4Pqm5mND_NMD9PcDu1tWz2IH58D6WxNOHlraiZODqD7RNzZ3pXL0kcOfxoCK_oQAvD_BwE"
            },
  {
    "productType": "airIntake",
    "productID": "",
    "product": "VO2 90° Air Intake",
    "manufacturer": "Vance & Hines",
    "vendor": "RevZilla",
    "price": "$499.99",
    "tax": "",
    "shipping": "",
    "rating": 4,
    "reviewers": 7,
    "image": "https://www.revzilla.com/product_images/0301/9351/vance_hines_vo290_air_intake_for_harley_sportster20042017_750x750.jpg",
    "productLink": "https://www.revzilla.com/motorcycle/vance-hines-vo2-90-air-intake-for-harley"
  },
  {
    "productType": "airIntake",
    "productID": "",
    "product": "Naked Monster Sucker Air Cleaner Kit",
    "manufacturer": "Arlen Ness",
    "vendor": "RevZilla",
    "price": "$224.96",
    "tax": "",
    "shipping": "",
    "rating": 5,
    "reviewers": 17,
    "image": "https://www.revzilla.com/product_images/0262/0943/arlen_ness_naked_monster_sucker_air_cleaner_kit_for_harley_twin_cam19992017_750x750.jpg",
    "productLink": "https://www.revzilla.com/motorcycle/arlen-ness-naked-monster-sucker-air-cleaner-kit-for-harley?rrec=true"
  }
]
