[
  {
    "productType": "exhaust",
    "productID": "",
    "product": "Fatty Pipe & Powercore 2 Silencer Combo",
    "manufacturer": "FMF",
    "vendor": "MotoSport",
    "price": "$341.98",
    "tax": "",
    "shipping": "",
    "rating": 4.5,
    "reviewers": 207,
    "image": "https://content.motosport.com/images/items/large/FMF/FMF00FL/X001-Y001.jpg",
    "productLink": "https://www.motosport.com/fmf-fatty-pipe-powercore-2-silencer-combo?variant"
  },
  {
    "productType": "exhaust",
    "productID": "",
    "product": "Slip-On Exhaust",
    "manufacturer": "Akrapovic",
    "vendor": "RevZilla",
    "price": "$350.96",
    "tax": "",
    "shipping": "",
    "rating": 4.5,
    "reviewers": 207,
    "image": "https://www.revzilla.com/product_images/0076/6495/akrapovic_slip_on_exhausts_750x750.jpg",
    "productLink": "https://www.revzilla.com/motorcycle/akrapovic-slip-on-exhausts"
  },
  {
    "productType": "exhaust",
    "productID": "",
    "product": "Highwayman 2-1 Black Exhaust",
    "manufacturer": "Danmoto",
    "vendor": "J&P Cycles",
    "price": "$290.99",
    "tax": "",
    "shipping": "",
    "rating": 4.5,
    "reviewers": 207,
    "image": "https://img.jpcycles.com/zoom/832-788_A.jpg",
    "productLink": "https://www.jpcycles.com/product/832-788/danmoto-highwayman-2-1-black-exhaust?mrkgcl=444&mrkgadid=3300323821&utm_source=google&utm_medium=cpc&utm_campaign=Google+Shopping++-+J%26P+Cycles+Brand&product_id=832-788&utm_content=pla&adpos=1o2&creative=278862110329&device=c&matchtype=&network=g&gclid=Cj0KCQiAkMDiBRDNARIsACKP1FEpP4M3eJ_BRvD_sqgM6FLrXLvBxlx0EJ4r8clRcB51FNO_j-MBhmIaAjeEEALw_wcB"
  },
  {
    "productType": "exhaust",
    "productID": "",
    "product": "38mm Motorcycle Exhaust Muffler & Clamp Removable Silencer",
    "manufacturer": "Badass Sharks",
    "vendor": "Amazon",
    "price": "$22.89",
    "tax": "",
    "shipping": "",
    "rating": 4.5,
    "reviewers": 207,
    "image": "https://images-na.ssl-images-amazon.com/images/I/31wFKciP1-L.jpg",
    "productLink": "https://www.amazon.com/Motorcycle-Exhaust-Muffler-Removable-Silencer/dp/B01MDVIDYM/ref=mp_s_a_1_55?ie=UTF8&qid=1548812092&sr=8-55&keywords=motorcycle+exhaust"
  }
]
